%YAML 1.1
%TAG !u! tag:unity3d.com,2011:
--- !u!1045 &1
EditorBuildSettings:
  m_ObjectHideFlags: 0
  serializedVersion: 2
  m_Scenes:
  - enabled: 1
    path: Assets/Scenes/Menu.unity
    guid: 825c70333ac60f84ab41fe7d96dba23d
  - enabled: 1
    path: Assets/Scenes/GamePlay.unity
    guid: b0dea13eaaa31b64aaa1d8d3e8c1a950
  m_configObjects: {}
